[
	{
		id: 1,
		name: "Acrobatic",
		category: "General",
		checkBonuses: [
			{
				checkId: 0,
				name: "Jump",
				bonus: 2
			},
			{
				checkId: 0,
				name: "Tumble",
				bonus: 2
			}
		]
	},
	{
		id: 2,
		name: "Agile",
		category: "General",
		bonuses: {
			checks: [
				{
					checkId: 0,
					name: "Balance",
					bonus: 2
				},
				{
					checkId: 0,
					name: "Escape Artist",
					bonus: 2
				}
			]
		}
	},
	{
		id: 3,
		name: "Alertness",
		category: "General",
		checkBonuses: [
			{
				checkId: 0,
				name: "Listen",
				bonus: 2
			},
			{
				checkId: 0,
				name: "Spot",
				bonus: 2
			}
		]
	},
	{
		id: 4,
		name: "Animal Affinity",
		category: "General",
		checkBonuses: [
			{
				checkId: 0,
				name: "Handle Animal",
				bonus: 2
			},
			{
				checkId: 0,
				name: "Ride",
				bonus: 2
			}
		]
	},
	{
		id: 5,
		name: "Armor Proficiency (Heavy)",
		category: "General",
		prerequisites: [
			{
				featureId: 6,
				name: "Armor Proficiency (Light)"
			},
			{
				featureId: 7,
				name: "Armor Proficiency (Medium)"
			}
		]
	},
	{
		id: 6,
		name: "Armor Proficiency (Light)",
		category: "General",
	},
	{
		id: 7,
		name: "Armor Proficiency (Medium)",
		category: "General",
		prerequisites: [
			{
				featureId: 6,
				name: "Armor Proficiency (Light)"
			}
		]
	},
	{
		id: 8,
		name: "Athletic",
		category: "General",
		checkBonuses: [
			{
				checkId: 0,
				name: "Climb",
				bonus: 2
			},
			{
				checkId: 0,
				name: "Swim",
				bonus: 2
			}
		]
	},
	{
		id: 9,
		name: "Augment Summoning",
		category: "General",
		prerequisites: [
			{
				featureId: 0,
				name: "Spell Focus"
			}
		]
	},
	{
		id: 10,
		name: "Blind-Fight",
		category: "General",
	},
	{
		id: 11,
		name: "Brew Potion"
		category: "Item Creation"
	},
	{
		id: 12,
		name: "Cleave"
		category: "General"
	},
	{
		id: 13,
		name: "Combat Casting",
		category: "General"
	},
	{
		id: 14,
		name: "Combat Expertise",
		category: "General"
	},
	{
		id: 15,
		name: "Combat Reflexes",
		category: "General"
	},
	{
		id: 16,
		name: "Craft Magic Arms and Armor",
		category: "Item Creation"
	},
	{
		id: 17,
		name: "Craft Rod",
		category: "Item Creation"
	},
	{
		id: 18,
		name: "Craft Staff",
		category: "Item Creation"
	},
	{
		id: 19,
		name: "Craft Wand",
		category: "Item Creation"
	},
	{
		id: 20,
		name: "Craft Wondrous Item",
		category: "Item Creation"
	},
	{
		id: 21,
		name: "Deceitful",
		category: "General",
		checkBonuses: [
			{
				checkId: 0,
				name: "Disguise",
				bonus: 2
			},
			{
				checkId: 0,
				name: "Forgery",
				bonus: 2
			}
		]
	},
	{
		id: 22,
		name: "Deflect Arrows",
		category: "General"
	},
	{
		id: 23,
		name: "Deft Hands",
		category: "General"
	},
	{
		id: 24,
		name: "Diehard",
		category: "General"
	},
	{
		id: 25,
		name: "Dodge",
		category: "General"
	},
	{
		id: 26,
		name: "Empower Spell",
		category: "Metamagic"
	},
	{
		id: 27,
		name: "Endurance",
		category: "General"
	},
	{
		id: 28,
		name: "Enlarge Spell",
		category: "Metamagic"
	},
	{
		id: 29,
		name: "Eschew Materials",
		category: "General"
	},
	{
		id: 30,
		name: "Exotic Weapon Proficiency",
		category: "General"
	},
	{
		id: 31,
		name: "Extend Spell",
		category: "Metamagic"
	},
	{
		id: 32,
		name: "Extra Turning",
		category: "General"
	},
	{
		id: 33,
		name: "Far Shot",
		category: "General"
	},
	{
		id: 34,
		name: "Forge Ring",
		category: "Item Creation"
	},
	{
		id: 35,
		name: "Great Cleave",
		category: "General"
	},
	{
		id: 36,
		name: "Great Fortitude",
		category: "General"
	},
	{
		id: 37,
		name: "Greater Spell Focus",
		category: "General"
	},
	{
		id: 38,
		name: "Greater Spell Penetration",
		category: "General"
	},
	{
		id: 39,
		name: "Greater Two-Weapon Fighting",
		category: "General"
	},
	{
		id: 40,
		name: "Greater Weapon Focus",
		category: "General"
	},
	{
		id: 41,
		name: "Greater Weapon Specialization",
		category: "General"
	},
	{
		id: 42,
		name: "Heighten Spell",
		category: "Metamagic"
	},
	{
		id: 43,
		name: "Improved Bull Rush",
		category: "General"
	},
	{
		id: 44,
		name: "Improved Counterspell",
		category: "General"
	},
	{
		id: 45,
		name: "Improved Critical",
		category: "General"
	},
	{
		id: 46,
		name: "Improved Disarm",
		category: "General"
	},
	{
		id: 47,
		name: "Improved Feint",
		category: "General"
	},
	{
		id: 48,
		name: "Improved Grapple",
		category: "General"
	},
	{
		id: 49,
		name: "Improved Initiative",
		category: "General"
	},
	{
		id: 50,
		name: "Improved Overrun",
		category: "General"
	},
	{
		id: 51,
		name: "Improved Precise Shot",
		category: "General"
	},
	{
		id: 52,
		name: "Improved Shield Bash",
		category: "General"
	},
	{
		id: 53,
		name: "Improved Sunder",
		category: "General"
	},
	{
		id: 54,
		name: "Improved Trip",
		category: "General"
	},
	{
		id: 55,
		name: "Improved Turning",
		category: "General"
	},
	{
		id: 56,
		name: "Improved Two-Weapon Fighting",
		category: "General"
	},
	{
		id: 57,
		name: "Improved Unarmed Strike",
		category: "General"
	},
	{
		id: 58,
		name: "Investigator",
		category: "General"
	},
	{
		id: 59,
		name: "Iron Will",
		category: "General"
	},
	{
		id: 60,
		name: "Leadership",
		category: "General"
	},
	{
		id: 61,
		name: "Lightning Reflexes",
		category: "General"
	},
	{
		id: 62,
		name: "Magical Aptitude",
		category: "General"
	},
	{
		id: 63,
		name: "Manyshot",
		category: "General"
	},
	{
		id: 64,
		name: "Martial Weapon Proficiency",
		category: "General"
	},
	{
		id: 65,
		name: "Maximize Spell",
		category: "Metamagic"
	},
	{
		id: 66,
		name: "Mobility",
		category: "General"
	},
	{
		id: 67,
		name: "Mounted Archery",
		category: "General"
	},
	{
		id: 68,
		name: "Mounted Combat",
		category: "General"
	},
	{
		id: 69,
		name: "Natural Spell",
		category: "General"
	},
	{
		id: 70,
		name: "Negotiator",
		category: "General"
	},
	{
		id: 71,
		name: "Nimble Fingers",
		category: "General"
	},
	{
		id: 72,
		name: "Persuasive",
		category: "General"
	},
	{
		id: 73,
		name: "Point Blank Shot",
		category: "General"
	},
	{
		id: 74,
		name: "Power Attack",
		category: "General"
	},
	{
		id: 75,
		name: "Precise Shot",
		category: "General"
	},
	{
		id: 76,
		name: "Quick Draw",
		category: "General"
	},
	{
		id: 77,
		name: "Quicken Spell",
		category: "Metamagic"
	},
	{
		id: 78,
		name: "Rapid Reload",
		category: "General"
	},
	{
		id: 79,
		name: "Rapid Shot",
		category: "General"
	},
	{
		id: 80,
		name: "Ride-By Attack",
		category: "General"
	},
	{
		id: 81,
		name: "Run",
		category: "General"
	},
	{
		id: 82,
		name: "Scribe Scroll",
		category: "Item Creation"
	},
	{
		id: 83,
		name: "Self-Sufficient",
		category: "General"
	},
	{
		id: 84,
		name: "Shield Proficiency",
		category: "General"
	},
	{
		id: 85,
		name: "Shot on the Run",
		category: "General"
	},
	{
		id: 86,
		name: "Silent Spell",
		category: "Metamagic"
	},
	{
		id: 87,
		name: "Simple Weapon Proficiency",
		category: "General"
	},
	{
		id: 88,
		name: "Skill Focus",
		category: "General"
	},
	{
		id: 89,
		name: "Snatch Arrows",
		category: "General"
	},
	{
		id: 90,
		name: "Spell Focus",
		category: "General"
	},
	{
		id: 91,
		name: "Spell Mastery",
		category: "Special"
	},
	{
		id: 92,
		name: "Spell Penetration",
		category: "General"
	},
	{
		id: 93,
		name: "Spirited Charge",
		category: "General"
	},
	{
		id: 94,
		name: "Spring Attack",
		category: "General"
	},
	{
		id: 95,
		name: "Stealthy",
		category: "General"
	},
	{
		id: 96,
		name: "Still Spell",
		category: "Metamagic"
	},
	{
		id: 97,
		name: "Stunning Fist",
		category: "General"
	},
	{
		id: 98,
		name: "Toughness",
		category: "General"
	},
	{
		id: 99,
		name: "Tower Shield Proficiency",
		category: "General"
	},
	{
		id: 100,
		name: "Track",
		category: "General"
	},
	{
		id: 101,
		name: "Trample",
		category: "General"
	},
	{
		id: 102,
		name: "Two-Weapon Defense",
		category: "General"
	},
	{
		id: 103,
		name: "Two-Weapon Fighting",
		category: "General"
	},
	{
		id: 104,
		name: "Weapon Finesse",
		category: "General"
	},
	{
		id: 105,
		name: "Weapon Focus",
		category: "General"
	},
	{
		id: 106,
		name: "Weapon Specialization",
		category: "General"
	},
	{
		id: 107,
		name: "Whirlwind Attack",
		category: "General"
	},
	{
		id: 108,
		name: "Widen Spell",
		category: "Metamagic"
	}
]